{"count":51,"next":"https://api.rawg.io/api/platforms?key=bf7311e9b9b746739d4de3da52d4ada0&page=2&page_size=100","previous":null,"results":[{"id":4,"name":"PC","slug":"pc","games_count":560300,"image_background":"https://media.rawg.io/media/games/d82/d82990b9c67ba0d2d09d4e6fa88885a7.jpg","image":null,"year_start":null,"year_end":null,"games":[{"id":3498,"slug":"grand-theft-auto-v","name":"Grand Theft Auto V","added":22443},{"id":3328,"slug":"the-witcher-3-wild-hunt","name":"The Witcher 3: Wild Hunt","added":22091},{"id":4200,"slug":"portal-2","name":"Portal 2","added":20808},{"id":4291,"slug":"counter-strike-global-offensive","name":"Counter-Strike: Global Offensive","added":18333},{"id":5286,"slug":"tomb-raider","name":"Tomb Raider (2013)","added":17758},{"id":13536,"slug":"portal","name":"Portal","added":17741}]},{"id":187,"name":"PlayStation 5","slug":"playstation5","games_count":1420,"image_background":"https://media.rawg.io/media/games/909/909974d1c7863c2027241e265fe7011f.jpg","image":null,"year_start":2020,"year_end":null,"games":[{"id":3498,"slug":"grand-theft-auto-v","name":"Grand Theft Auto V","added":22443},{"id":3328,"slug":"the-witcher-3-wild-hunt","name":"The Witcher 3: Wild Hunt","added":22091},{"id":5679,"slug":"the-elder-scrolls-v-skyrim","name":"The Elder Scrolls V: Skyrim","added":16788},{"id":32,"slug":"destiny-2","name":"Destiny 2","added":14568},{"id":3070,"slug":"fallout-4","name":"Fallout 4","added":14244},{"id":41494,"slug":"cyberpunk-2077","name":"Cyberpunk 2077","added":13876}]},{"id":1,"name":"Xbox One","slug":"xbox-one","games_count":5728,"image_background":"https://media.rawg.io/media/games/d1a/d1a2e99ade53494c6330a0ed945fe823.jpg","image":null,"year_start":null,"year_end":null,"games":[{"id":3498,"slug":"grand-theft-auto-v","name":"Grand Theft Auto V","added":22443},{"id":3328,"slug":"the-witcher-3-wild-hunt","name":"The Witcher 3: Wild Hunt","added":22091},{"id":4200,"slug":"portal-2","name":"Portal 2","added":20808},{"id":5679,"slug":"the-elder-scrolls-v-skyrim","name":"The Elder Scrolls V: Skyrim","added":16788},{"id":28,"slug":"red-dead-redemption-2","name":"Red Dead Redemption 2","added":16755},{"id":4062,"slug":"bioshock-infinite","name":"BioShock Infinite","added":16068}]},{"id":18,"name":"PlayStation 4","slug":"playstation4","games_count":6973,"image_background":"https://media.rawg.io/media/games/d82/d82990b9c67ba0d2d09d4e6fa88885a7.jpg","image":null,"year_start":null,"year_end":null,"games":[{"id":3498,"slug":"grand-theft-auto-v","name":"Grand Theft Auto V","added":22443},{"id":3328,"slug":"the-witcher-3-wild-hunt","name":"The Witcher 3: Wild Hunt","added":22091},{"id":5679,"slug":"the-elder-scrolls-v-skyrim","name":"The Elder Scrolls V: Skyrim","added":16788},{"id":28,"slug":"red-dead-redemption-2","name":"Red Dead Redemption 2","added":16755},{"id":4062,"slug":"bioshock-infinite","name":"BioShock Infinite","added":16068},{"id":3439,"slug":"life-is-strange-episode-1-2","name":"Life is Strange","added":15874}]},{"id":186,"name":"Xbox Series S/X","slug":"xbox-series-x","games_count":1218,"image_background":"https://media.rawg.io/media/games/dcb/dcbb67f371a9a28ea38ffd73ee0f53f3.jpg","image":null,"year_start":2020,"year_end":null,"games":[{"id":3498,"slug":"grand-theft-auto-v","name":"Grand Theft Auto V","added":22443},{"id":3328,"slug":"the-witcher-3-wild-hunt","name":"The Witcher 3: Wild Hunt","added":22091},{"id":5679,"slug":"the-elder-scrolls-v-skyrim","name":"The Elder Scrolls V: Skyrim","added":16788},{"id":32,"slug":"destiny-2","name":"Destiny 2","added":14568},{"id":41494,"slug":"cyberpunk-2077","name":"Cyberpunk 2077","added":13876},{"id":766,"slug":"warframe","name":"Warframe","added":13131}]},{"id":7,"name":"Nintendo Switch","slug":"nintendo-switch","games_count":5750,"image_background":"https://media.rawg.io/media/games/1f4/1f47a270b8f241e4676b14d39ec620f7.jpg","image":null,"year_start":null,"year_end":null,"games":[{"id":3328,"slug":"the-witcher-3-wild-hunt","name":"The Witcher 3: Wild Hunt","added":22091},{"id":13536,"slug":"portal","name":"Portal","added":17741},{"id":5679,"slug":"the-elder-scrolls-v-skyrim","name":"The Elder Scrolls V: Skyrim","added":16788},{"id":4062,"slug":"bioshock-infinite","name":"BioShock Infinite","added":16068},{"id":1030,"slug":"limbo","name":"Limbo","added":14117},{"id":2454,"slug":"doom","name":"DOOM (2016)","added":13987}]},{"id":3,"name":"iOS","slug":"ios","games_count":77430,"image_background":"https://media.rawg.io/media/games/d4b/d4bcd78873edd9992d93aff9cc8db0c8.jpg","image":null,"year_start":null,"year_end":null,"games":[{"id":3439,"slug":"life-is-strange-episode-1-2","name":"Life is Strange","added":15874},{"id":1030,"slug":"limbo","name":"Limbo","added":14117},{"id":422,"slug":"terraria","name":"Terraria","added":13483},{"id":766,"slug":"warframe","name":"Warframe","added":13131},{"id":416,"slug":"grand-theft-auto-san-andreas","name":"Grand Theft Auto: San Andreas","added":12055},{"id":23027,"slug":"the-walking-dead","name":"The Walking Dead: Season 1","added":11657}]},{"id":21,"name":"Android","slug":"android","games_count":52500,"image_background":"https://media.rawg.io/media/games/d4b/d4bcd78873edd9992d93aff9cc8db0c8.jpg","image":null,"year_start":null,"year_end":null,"games":[{"id":13536,"slug":"portal","name":"Portal","added":17741},{"id":13537,"slug":"half-life-2","name":"Half-Life 2","added":16043},{"id":802,"slug":"borderlands-2","name":"Borderlands 2","added":15975},{"id":3439,"slug":"life-is-strange-episode-1-2","name":"Life is Strange","added":15874},{"id":1030,"slug":"limbo","name":"Limbo","added":14117},{"id":422,"slug":"terraria","name":"Terraria","added":13483}]},{"id":8,"name":"Nintendo 3DS","slug":"nintendo-3ds","games_count":1682,"image_background":"https://media.rawg.io/media/games/041/041026016869e440fb1fb2b6be5222c4.jpg","image":null,"year_start":null,"year_end":null,"games":[{"id":422,"slug":"terraria","name":"Terraria","added":13483},{"id":22509,"slug":"minecraft","name":"Minecraft","added":8886},{"id":2597,"slug":"lego-lord-of-the-rings","name":"LEGO The Lord of the Rings","added":5982},{"id":250,"slug":"the-binding-of-isaac-rebirth","name":"The Binding of Isaac: Rebirth","added":5745},{"id":3729,"slug":"lego-the-hobbit","name":"LEGO The Hobbit","added":5480},{"id":4012,"slug":"resident-evil-revelations-biohazard-revelations","name":"Resident Evil Revelations","added":4477}]},{"id":9,"name":"Nintendo DS","slug":"nintendo-ds","games_count":2485,"image_background":"https://media.rawg.io/media/games/ef9/ef96c016bdc6f6d708085536df3d07ae.jpg","image":null,"year_start":null,"year_end":null,"games":[{"id":865,"slug":"call-of-duty-black-ops","name":"Call of Duty: Black Ops","added":6958},{"id":3486,"slug":"syberia","name":"Syberia","added":6831},{"id":2597,"slug":"lego-lord-of-the-rings","name":"LEGO The Lord of the Rings","added":5982},{"id":5578,"slug":"grid","name":"GRID (2008)","added":5420},{"id":4869,"slug":"tomb-raider-underworld","name":"Tomb Raider: Underworld","added":4954},{"id":5528,"slug":"call-of-duty-world-at-war","name":"Call of Duty: World at War","added":4618}]},{"id":13,"name":"Nintendo DSi","slug":"nintendo-dsi","games_count":37,"image_background":"https://media.rawg.io/media/screenshots/078/078629e997421ca28e9098bd7a87cb10.jpg","image":null,"year_start":null,"year_end":null,"games":[{"id":19309,"slug":"plants-vs-zombies-goty-edition","name":"Plants vs. Zombies GOTY Edition","added":3952},{"id":949,"slug":"cut-the-rope","name":"Cut the Rope","added":683},{"id":223378,"slug":"ace-attorney-investigations-miles-edgeworth","name":"Ace Attorney Investigations - Miles Edgeworth","added":206},{"id":22727,"slug":"jagged-alliance","name":"Jagged Alliance","added":152},{"id":53802,"slug":"dragons-lair","name":"Dragon's Lair","added":83},{"id":25953,"slug":"mario-vs-donkey-kong-minis-march-again","name":"Mario vs. Donkey Kong: Minis March Again!","added":37}]},{"id":5,"name":"macOS","slug":"macos","games_count":107984,"image_background":"https://media.rawg.io/media/games/b7b/b7b8381707152afc7d91f5d95de70e39.jpg","image":null,"year_start":null,"year_end":null,"games":[{"id":3328,"slug":"the-witcher-3-wild-hunt","name":"The Witcher 3: Wild Hunt","added":22091},{"id":4200,"slug":"portal-2","name":"Portal 2","added":20808},{"id":5286,"slug":"tomb-raider","name":"Tomb Raider (2013)","added":17758},{"id":13536,"slug":"portal","name":"Portal","added":17741},{"id":12020,"slug":"left-4-dead-2","name":"Left 4 Dead 2","added":17465},{"id":13537,"slug":"half-life-2","name":"Half-Life 2","added":16043}]},{"id":6,"name":"Linux","slug":"linux","games_count":80340,"image_background":"https://media.rawg.io/media/games/46d/46d98e6910fbc0706e2948a7cc9b10c5.jpg","image":null,"year_start":null,"year_end":null,"games":[{"id":4200,"slug":"portal-2","name":"Portal 2","added":20808},{"id":4291,"slug":"counter-strike-global-offensive","name":"Counter-Strike: Global Offensive","added":18333},{"id":13536,"slug":"portal","name":"Portal","added":17741},{"id":12020,"slug":"left-4-dead-2","name":"Left 4 Dead 2","added":17465},{"id":4062,"slug":"bioshock-infinite","name":"BioShock Infinite","added":16068},{"id":13537,"slug":"half-life-2","name":"Half-Life 2","added":16043}]},{"id":14,"name":"Xbox 360","slug":"xbox360","games_count":2808,"image_background":"https://media.rawg.io/media/games/4a0/4a0a1316102366260e6f38fd2a9cfdce.jpg","image":null,"year_start":null,"year_end":null,"games":[{"id":3498,"slug":"grand-theft-auto-v","name":"Grand Theft Auto V","added":22443},{"id":4200,"slug":"portal-2","name":"Portal 2","added":20808},{"id":4291,"slug":"counter-strike-global-offensive","name":"Counter-Strike: Global Offensive","added":18333},{"id":5286,"slug":"tomb-raider","name":"Tomb Raider (2013)","added":17758},{"id":13536,"slug":"portal","name":"Portal","added":17741},{"id":12020,"slug":"left-4-dead-2","name":"Left 4 Dead 2","added":17465}]},{"id":80,"name":"Xbox","slug":"xbox-old","games_count":744,"image_background":"https://media.rawg.io/media/games/233/233cdc08cce0228f6f35222eca3bff92.jpg","image":null,"year_start":null,"year_end":null,"games":[{"id":13537,"slug":"half-life-2","name":"Half-Life 2","added":16043},{"id":416,"slug":"grand-theft-auto-san-andreas","name":"Grand Theft Auto: San Andreas","added":12055},{"id":430,"slug":"grand-theft-auto-vice-city","name":"Grand Theft Auto: Vice City","added":9848},{"id":19301,"slug":"counter-strike","name":"Counter-Strike","added":9300},{"id":2361,"slug":"psychonauts","name":"Psychonauts","added":8312},{"id":432,"slug":"grand-theft-auto-iii","name":"Grand Theft Auto III","added":7296}]},{"id":16,"name":"PlayStation 3","slug":"playstation3","games_count":3164,"image_background":"https://media.rawg.io/media/games/bc0/bc06a29ceac58652b684deefe7d56099.jpg","image":null,"year_start":null,"year_end":null,"games":[{"id":3498,"slug":"grand-theft-auto-v","name":"Grand Theft Auto V","added":22443},{"id":4200,"slug":"portal-2","name":"Portal 2","added":20808},{"id":4291,"slug":"counter-strike-global-offensive","name":"Counter-Strike: Global Offensive","added":18333},{"id":5286,"slug":"tomb-raider","name":"Tomb Raider (2013)","added":17758},{"id":13536,"slug":"portal","name":"Portal","added":17741},{"id":5679,"slug":"the-elder-scrolls-v-skyrim","name":"The Elder Scrolls V: Skyrim","added":16788}]},{"id":15,"name":"PlayStation 2","slug":"playstation2","games_count":2071,"image_background":"https://media.rawg.io/media/games/13a/13a528ac9cf48bbb6be5d35fe029336d.jpg","image":null,"year_start":null,"year_end":null,"games":[{"id":416,"slug":"grand-theft-auto-san-andreas","name":"Grand Theft Auto: San Andreas","added":12055},{"id":18080,"slug":"half-life","name":"Half-Life","added":11490},{"id":430,"slug":"grand-theft-auto-vice-city","name":"Grand Theft Auto: Vice City","added":9848},{"id":2361,"slug":"psychonauts","name":"Psychonauts","added":8312},{"id":432,"slug":"grand-theft-auto-iii","name":"Grand Theft Auto III","added":7296},{"id":56184,"slug":"resident-evil-4","name":"Resident Evil 4 (2005)","added":7015}]},{"id":27,"name":"PlayStation","slug":"playstation1","games_count":1684,"image_background":"https://media.rawg.io/media/games/786/786f9a212646c793ccbad196cba2cf36.jpg","image":null,"year_start":null,"year_end":null,"games":[{"id":5159,"slug":"resident-evil-2","name":"Resident Evil 2 (1998)","added":6418},{"id":5193,"slug":"oddworld-abes-oddysee","name":"Oddworld: Abe's Oddysee","added":5758},{"id":3449,"slug":"resident-evil","name":"Resident Evil","added":5446},{"id":52939,"slug":"final-fantasy-vii","name":"Final Fantasy VII (1997)","added":4362},{"id":20569,"slug":"ufo-enemy-unknown","name":"X-COM: UFO Defense","added":3649},{"id":57908,"slug":"tomb-raider-ii","name":"Tomb Raider II","added":3281}]},{"id":19,"name":"PS Vita","slug":"ps-vita","games_count":1458,"image_background":"https://media.rawg.io/media/games/003/0031c0067559d41df19cf98ad87e02aa.jpg","image":null,"year_start":null,"year_end":null,"games":[{"id":802,"slug":"borderlands-2","name":"Borderlands 2","added":15975},{"id":1030,"slug":"limbo","name":"Limbo","added":14117},{"id":422,"slug":"terraria","name":"Terraria","added":13483},{"id":23027,"slug":"the-walking-dead","name":"The Walking Dead: Season 1","added":11657},{"id":654,"slug":"stardew-valley","name":"Stardew Valley","added":10966},{"id":3612,"slug":"hotline-miami","name":"Hotline Miami","added":10883}]},{"id":17,"name":"PSP","slug":"psp","games_count":1377,"image_background":"https://media.rawg.io/media/games/932/93221053809511fde4a0c6a9fddaf558.jpg","image":null,"year_start":null,"year_end":null,"games":[{"id":13886,"slug":"star-wars-battlefront-ii-2","name":"Star Wars: Battlefront II (2005)","added":4881},{"id":5298,"slug":"tomb-raider-legend","name":"Tomb Raider: Legend","added":4520},{"id":5297,"slug":"tomb-raider-anniversary","name":"Tomb Raider: Anniversary","added":4418},{"id":58890,"slug":"need-for-speed-most-wanted","name":"Need For Speed: Most Wanted","added":3258},{"id":16543,"slug":"lego-batman","name":"LEGO Batman","added":3242},{"id":13926,"slug":"prince-of-persia-the-two-thrones","name":"Prince of Persia: The Two Thrones","added":2898}]},{"id":10,"name":"Wii U","slug":"wii-u","games_count":1114,"image_background":"https://media.rawg.io/media/games/cc1/cc196a5ad763955d6532cdba236f730c.jpg","image":null,"year_start":null,"year_end":null,"games":[{"id":422,"slug":"terraria","name":"Terraria","added":13483},{"id":3841,"slug":"assassins-creed-iv-black-flag","name":"Assassin’s Creed IV: Black Flag","added":9738},{"id":3144,"slug":"super-meat-boy","name":"Super Meat Boy","added":9684},{"id":22509,"slug":"minecraft","name":"Minecraft","added":8886},{"id":3687,"slug":"watch-dogs","name":"Watch Dogs","added":8390},{"id":3876,"slug":"deus-ex-human-revolution-directors-cut","name":"Deus Ex: Human Revolution - Director's Cut","added":7765}]},{"id":11,"name":"Wii","slug":"wii","games_count":2208,"image_background":"https://media.rawg.io/media/games/693/693952316d4b90984a92e7ab0f5c9b81.jpg","image":null,"year_start":null,"year_end":null,"games":[{"id":56184,"slug":"resident-evil-4","name":"Resident Evil 4 (2005)","added":7015},{"id":865,"slug":"call-of-duty-black-ops","name":"Call of Duty: Black Ops","added":6958},{"id":11276,"slug":"call-of-duty-modern-warfare-3","name":"Call of Duty: Modern Warfare 3","added":6356},{"id":2597,"slug":"lego-lord-of-the-rings","name":"LEGO The Lord of the Rings","added":5982},{"id":4869,"slug":"tomb-raider-underworld","name":"Tomb Raider: Underworld","added":4954},{"id":5528,"slug":"call-of-duty-world-at-war","name":"Call of Duty: World at War","added":4618}]},{"id":105,"name":"GameCube","slug":"gamecube","games_count":636,"image_background":"https://media.rawg.io/media/games/83b/83b59a9d512bec8bc8bda6b539b215b2.jpg","image":null,"year_start":null,"year_end":null,"games":[{"id":56184,"slug":"resident-evil-4","name":"Resident Evil 4 (2005)","added":7015},{"id":5159,"slug":"resident-evil-2","name":"Resident Evil 2 (1998)","added":6418},{"id":19592,"slug":"hitman-2-silent-assassin","name":"Hitman 2: Silent Assassin","added":4654},{"id":5298,"slug":"tomb-raider-legend","name":"Tomb Raider: Legend","added":4520},{"id":12018,"slug":"star-wars-jedi-knight-ii-jedi-outcast","name":"Star Wars Jedi Knight II: Jedi Outcast","added":3804},{"id":13909,"slug":"prince-of-persia-the-sands-of-time","name":"Prince of Persia: The Sands of Time","added":3490}]},{"id":83,"name":"Nintendo 64","slug":"nintendo-64","games_count":363,"image_background":"https://media.rawg.io/media/screenshots/61f/61f183e3d12c7846ed6bd3c027a9fa47.jpg","image":null,"year_start":null,"year_end":null,"games":[{"id":5159,"slug":"resident-evil-2","name":"Resident Evil 2 (1998)","added":6418},{"id":54491,"slug":"quake","name":"Quake","added":3301},{"id":20466,"slug":"worms-armageddon","name":"Worms Armageddon","added":3170},{"id":54492,"slug":"quake-2","name":"Quake II","added":2799},{"id":25097,"slug":"the-legend-of-zelda-ocarina-of-time","name":"The Legend of Zelda: Ocarina of Time","added":1872},{"id":22900,"slug":"daikatana","name":"John Romero's Daikatana","added":1607}]},{"id":24,"name":"Game Boy Advance","slug":"game-boy-advance","games_count":956,"image_background":"https://media.rawg.io/media/games/373/373a9a1f664de6e4c31f08644729e2db.jpg","image":null,"year_start":null,"year_end":null,"games":[{"id":53341,"slug":"jet-set-radio-2012","name":"Jet Set Radio","added":5307},{"id":17975,"slug":"doom-ii","name":"DOOM II","added":3355},{"id":53446,"slug":"need-for-speed-underground-2-2","name":"Need for Speed: Underground 2","added":2323},{"id":19646,"slug":"splinter-cell","name":"Tom Clancy's Splinter Cell","added":2283},{"id":4005,"slug":"wolfenstein-3d","name":"Wolfenstein 3D","added":1939},{"id":5265,"slug":"need-for-speed-carbon","name":"Need For Speed Carbon","added":1763}]},{"id":43,"name":"Game Boy Color","slug":"game-boy-color","games_count":428,"image_background":"https://media.rawg.io/media/games/360/360f00cbb4b4364b9af0e7ff8e397b65.jpg","image":null,"year_start":null,"year_end":null,"games":[{"id":20466,"slug":"worms-armageddon","name":"Worms Armageddon","added":3170},{"id":57607,"slug":"metal-gear-solid-1","name":"Metal Gear Solid","added":2306},{"id":52997,"slug":"grand-theft-auto-2-1999","name":"Grand Theft Auto 2","added":2020},{"id":52998,"slug":"grand-theft-auto-1998","name":"Grand Theft Auto","added":1940},{"id":25080,"slug":"super-mario-bros","name":"Super Mario Bros.","added":1533},{"id":24030,"slug":"super-mario-bros-3","name":"Super Mario Bros. 3","added":1209}]},{"id":26,"name":"Game Boy","slug":"game-boy","games_count":617,"image_background":"https://media.rawg.io/media/games/057/0573c1c9e1f2414c1f4acabe86ee9fd9.jpg","image":null,"year_start":null,"year_end":null,"games":[{"id":5383,"slug":"worms","name":"Worms","added":2136},{"id":52998,"slug":"grand-theft-auto-1998","name":"Grand Theft Auto","added":1940},{"id":52175,"slug":"battletoads","name":"Battletoads","added":1884},{"id":54285,"slug":"mortal-kombat","name":"Mortal Kombat","added":1792},{"id":14829,"slug":"turok","name":"Turok: Dinosaur Hunter","added":1427},{"id":23762,"slug":"pokemon-red","name":"Pokémon Red, Blue, Yellow","added":1104}]},{"id":79,"name":"SNES","slug":"snes","games_count":989,"image_background":"https://media.rawg.io/media/games/087/08727beb32c364d30e8b2a1aa8595f8e.jpg","image":null,"year_start":null,"year_end":null,"games":[{"id":5383,"slug":"worms","name":"Worms","added":2136},{"id":4005,"slug":"wolfenstein-3d","name":"Wolfenstein 3D","added":1939},{"id":54285,"slug":"mortal-kombat","name":"Mortal Kombat","added":1792},{"id":52884,"slug":"doom-2","name":"DOOM","added":1691},{"id":1063,"slug":"final-fantasy-vi","name":"FINAL FANTASY VI","added":1569},{"id":24899,"slug":"super-mario-world","name":"Super Mario World","added":1546}]},{"id":49,"name":"NES","slug":"nes","games_count":1024,"image_background":"https://media.rawg.io/media/games/f78/f7809ab885f7464845681e5931aabeb8.jpg","image":null,"year_start":null,"year_end":null,"games":[{"id":54122,"slug":"ultima-4-quest-of-the-avatar","name":"Ultima IV: Quest of the Avatar","added":2272},{"id":52175,"slug":"battletoads","name":"Battletoads","added":1884},{"id":25080,"slug":"super-mario-bros","name":"Super Mario Bros.","added":1533},{"id":24030,"slug":"super-mario-bros-3","name":"Super Mario Bros. 3","added":1209},{"id":24881,"slug":"pac-man","name":"Pac-Man","added":831},{"id":24072,"slug":"the-legend-of-zelda","name":"The Legend of Zelda","added":770}]},{"id":55,"name":"Classic Macintosh","slug":"macintosh","games_count":674,"image_background":"https://media.rawg.io/media/games/38a/38af969459ad6e5de116ec8a4a84218c.jpg","image":null,"year_start":null,"year_end":null,"games":[{"id":13554,"slug":"fallout-a-post-nuclear-role-playing-game","name":"Fallout","added":8487},{"id":2518,"slug":"max-payne","name":"Max Payne","added":5835},{"id":12018,"slug":"star-wars-jedi-knight-ii-jedi-outcast","name":"Star Wars Jedi Knight II: Jedi Outcast","added":3804},{"id":17975,"slug":"doom-ii","name":"DOOM II","added":3355},{"id":54491,"slug":"quake","name":"Quake","added":3301},{"id":57908,"slug":"tomb-raider-ii","name":"Tomb Raider II","added":3281}]},{"id":41,"name":"Apple II","slug":"apple-ii","games_count":424,"image_background":"https://media.rawg.io/media/games/941/94139518bc51a86b9e1b762e0b8b62c8.jpg","image":null,"year_start":null,"year_end":null,"games":[{"id":30119,"slug":"wasteland","name":"Wasteland","added":2285},{"id":54122,"slug":"ultima-4-quest-of-the-avatar","name":"Ultima IV: Quest of the Avatar","added":2272},{"id":22991,"slug":"akalabeth-world-of-doom-2","name":"Akalabeth: World of Doom","added":1525},{"id":24881,"slug":"pac-man","name":"Pac-Man","added":831},{"id":29908,"slug":"another-world","name":"Another World","added":823},{"id":51175,"slug":"leisure-suit-larry-1-in-the-land-of-the-lounge-l-2","name":"Leisure Suit Larry 1 - In the Land of the Lounge Lizards","added":761}]},{"id":166,"name":"Commodore / Amiga","slug":"commodore-amiga","games_count":2084,"image_background":"https://media.rawg.io/media/screenshots/101/1015fe740ce5654eb97c9140f6da3c3e.jpg","image":null,"year_start":null,"year_end":null,"games":[{"id":20569,"slug":"ufo-enemy-unknown","name":"X-COM: UFO Defense","added":3649},{"id":54491,"slug":"quake","name":"Quake","added":3301},{"id":54492,"slug":"quake-2","name":"Quake II","added":2799},{"id":22734,"slug":"beneath-a-steel-sky","name":"Beneath a Steel Sky","added":2704},{"id":30119,"slug":"wasteland","name":"Wasteland","added":2285},{"id":54122,"slug":"ultima-4-quest-of-the-avatar","name":"Ultima IV: Quest of the Avatar","added":2272}]},{"id":28,"name":"Atari 7800","slug":"atari-7800","games_count":64,"image_background":"https://media.rawg.io/media/screenshots/565/56504b28b184dbc630a7de118e39d822.jpg","image":null,"year_start":null,"year_end":null,"games":[{"id":3802,"slug":"double-dragon","name":"Double Dragon","added":482},{"id":52512,"slug":"arcade-archives-donkey-kong","name":"Donkey Kong","added":440},{"id":52434,"slug":"mario-bros-1983","name":"Mario Bros. (1983)","added":322},{"id":28279,"slug":"joust","name":"Joust","added":187},{"id":52513,"slug":"donkey-kong-jr","name":"Donkey Kong Jr.","added":150},{"id":53830,"slug":"galaga-1981","name":"Galaga (1981)","added":147}]},{"id":31,"name":"Atari 5200","slug":"atari-5200","games_count":64,"image_background":"https://media.rawg.io/media/screenshots/678/6786598cba3939d48ed60cbd1a3723f4.jpg","image":null,"year_start":null,"year_end":null,"games":[{"id":24881,"slug":"pac-man","name":"Pac-Man","added":831},{"id":52434,"slug":"mario-bros-1983","name":"Mario Bros. (1983)","added":322},{"id":28279,"slug":"joust","name":"Joust","added":187},{"id":52423,"slug":"galaxian","name":"Galaxian","added":177},{"id":52444,"slug":"space-invaders-1978","name":"Space Invaders (1978)","added":162},{"id":52418,"slug":"dig-dug-1982","name":"Dig Dug (1982)","added":133}]},{"id":23,"name":"Atari 2600","slug":"atari-2600","games_count":294,"image_background":"https://media.rawg.io/media/screenshots/ff6/ff623993a854663931c1e78d72a16a5a.jpg","image":null,"year_start":null,"year_end":null,"games":[{"id":24881,"slug":"pac-man","name":"Pac-Man","added":831},{"id":52623,"slug":"tetris-1984","name":"Tetris (1984)","added":646},{"id":3802,"slug":"double-dragon","name":"Double Dragon","added":482},{"id":52512,"slug":"arcade-archives-donkey-kong","name":"Donkey Kong","added":440},{"id":52434,"slug":"mario-bros-1983","name":"Mario Bros. (1983)","added":322},{"id":52467,"slug":"track-field","name":"Track & Field","added":214}]},{"id":22,"name":"Atari Flashback","slug":"atari-flashback","games_count":30,"image_background":"https://media.rawg.io/media/screenshots/2aa/2aa07f58491e14b0183333f8956bc802.jpg","image":null,"year_start":null,"year_end":null,"games":[{"id":53138,"slug":"pong-1972","name":"Pong (1972)","added":125},{"id":52391,"slug":"adventure-game-atari","name":"Adventure","added":65},{"id":52563,"slug":"pitfall-1982","name":"Pitfall! (1982)","added":61},{"id":52402,"slug":"breakout-1976","name":"Breakout (1976)","added":58},{"id":52436,"slug":"missile-command-1980","name":"Missile Command (1980)","added":51},{"id":52409,"slug":"combat-1977","name":"Combat (1977)","added":45}]},{"id":25,"name":"Atari 8-bit","slug":"atari-8-bit","games_count":309,"image_background":"https://media.rawg.io/media/games/876/8764efc52fba503a00af64a2cd51f66c.jpg","image":null,"year_start":null,"year_end":null,"games":[{"id":54122,"slug":"ultima-4-quest-of-the-avatar","name":"Ultima IV: Quest of the Avatar","added":2272},{"id":24881,"slug":"pac-man","name":"Pac-Man","added":831},{"id":52512,"slug":"arcade-archives-donkey-kong","name":"Donkey Kong","added":440},{"id":52434,"slug":"mario-bros-1983","name":"Mario Bros. (1983)","added":322},{"id":28279,"slug":"joust","name":"Joust","added":187},{"id":25161,"slug":"lode-runner","name":"Lode Runner","added":184}]},{"id":34,"name":"Atari ST","slug":"atari-st","games_count":836,"image_background":"https://media.rawg.io/media/games/e6a/e6a509fed4879271d7d7eaba04349d10.jpg","image":null,"year_start":null,"year_end":null,"games":[{"id":54122,"slug":"ultima-4-quest-of-the-avatar","name":"Ultima IV: Quest of the Avatar","added":2272},{"id":22733,"slug":"lure-of-the-temptress","name":"Lure of the Temptress","added":1789},{"id":29908,"slug":"another-world","name":"Another World","added":823},{"id":16122,"slug":"loom","name":"LOOM","added":798},{"id":31542,"slug":"indiana-jones-and-the-last-crusade","name":"Indiana Jones and the Last Crusade: The Graphic Adventure","added":776},{"id":51175,"slug":"leisure-suit-larry-1-in-the-land-of-the-lounge-l-2","name":"Leisure Suit Larry 1 - In the Land of the Lounge Lizards","added":761}]},{"id":46,"name":"Atari Lynx","slug":"atari-lynx","games_count":57,"image_background":"https://media.rawg.io/media/screenshots/d71/d71b68d3f6b1810bc9d64d7aea746d30.jpg","image":null,"year_start":null,"year_end":null,"games":[{"id":29391,"slug":"eye-of-the-beholder","name":"Eye of the Beholder","added":1189},{"id":3802,"slug":"double-dragon","name":"Double Dragon","added":482},{"id":30501,"slug":"chips-challenge","name":"Chip's Challenge","added":465},{"id":53467,"slug":"paperboy","name":"Paperboy","added":205},{"id":52438,"slug":"ms-pac-man","name":"Ms. Pac-Man","added":116},{"id":53975,"slug":"ninja-gaiden-iii-the-ancient-ship-of-doom","name":"Ninja Gaiden III: The Ancient Ship of Doom (1991)","added":114}]},{"id":50,"name":"Atari XEGS","slug":"atari-xegs","games_count":22,"image_background":"https://media.rawg.io/media/screenshots/769/7691726d70c23c029903df08858df001.jpg","image":null,"year_start":null,"year_end":null,"games":[{"id":52512,"slug":"arcade-archives-donkey-kong","name":"Donkey Kong","added":440},{"id":52434,"slug":"mario-bros-1983","name":"Mario Bros. (1983)","added":322},{"id":34571,"slug":"lode-runner-1983","name":"Lode Runner (1983)","added":139},{"id":53687,"slug":"archon-the-light-and-the-dark","name":"Archon: The Light and the Dark","added":21},{"id":52605,"slug":"summer-games","name":"Summer Games","added":25},{"id":52413,"slug":"crossbow","name":"Crossbow","added":15}]}]}